{
  "setupTestFrameworkScriptFile": "<rootDir>/src/test/setup.js",
  "collectCoverage": true,
  "collectCoverageFrom": [
    "src/main/jsx/**/*.js"
  ],
  "coveragePathIgnorePatterns": [
    "/constants/",
    "/dispatcher/",
    "/index.js",
    "/translations/"
  ],
  "roots": [
    "<rootDir>/src/",
    "<rootDir>/tests/"
  ],
  "testPathIgnorePatterns": [
    "/node_modules/",
    "/.cache"
  ],
  "coverageThreshold": {
    "global": {
      "branches": 0,
      "functions": 0,
      "lines": 0,
      "statements": 0
    }
  },
  "moduleFileExtensions": [
    "js"
  ],
  "modulePaths": [
    "<rootDir>/src/main/jsx"
  ],
  "moduleNameMapper": {
    "\\.(jpg|jpeg|png|gif|eot|otf|webp|svg|ttf|woff|woff2|mp4|webm|wav|mp3|m4a|aac|oga)$": "<rootDir>/src/test/__mocks__/fileMock.js",
    "\\.(css|less|scss)$": "<rootDir>/src/test/__mocks__/styleMock.js"
  }
}
