<svg width="350" height="50" xmlns="http://www.w3.org/2000/svg">

 <g>
  <title>background</title>
  <rect fill="none" id="canvas_background" height="52" width="352" y="-1" x="-1"/>
 </g>
 <g>
  <title>Layer 1</title>
  <path d="m57.6975,38.361187c0,1.56 -0.76875,2.33875 -2.30875,2.33875c-1.53875,0 -2.4375,-0.07 -2.69375,-0.2075c-0.84875,-0.295 -1.27375,-1.00625 -1.27375,-2.13125l0,-17.495c0,-2.24875 -2.65375,-3.37375 -7.9625,-3.37375l-0.82875,0l-0.38375,0c-0.2175,0 -0.33625,0.01 -0.35625,0.02875c-2.54625,0.1 -4.2325,0.2775 -5.06125,0.53375c-1.85625,0.5525 -2.7825,1.75625 -2.7825,3.61125l0,16.695c0,1.125 -0.425,1.83625 -1.2725,2.13125c-0.2575,0.1375 -1.155,0.2075 -2.695,0.2075c-1.55875,0 -2.33875,-0.77875 -2.33875,-2.33875l0,-16.75375c0,-1.6775 -0.60125,-2.8125 -1.805,-3.405c-0.82875,-0.41375 -2.18125,-0.62125 -4.055,-0.62125l-0.77125,0l-0.5025,0l-0.26625,0c-0.15875,0 -0.24625,-0.01 -0.26625,-0.03c-0.395,-0.02 -0.74,-0.03375 -1.03625,-0.045c-0.29625,-0.00875 -0.5425,-0.01375 -0.74,-0.01375c-5.3675,0 -8.05125,1.145 -8.05125,3.43375l0,17.435c0,1.125 -0.415,1.83625 -1.24375,2.13125c-0.2575,0.1375 -1.155,0.2075 -2.69375,0.2075c-1.54,0 -2.30875,-0.77875 -2.30875,-2.33875l0,-16.78375c0,-6.1775 4.53875,-9.26625 13.6175,-9.26625c1.795,0 3.26,0.015 4.395,0.045c1.135,0.03 1.97875,0.08375 2.53125,0.1625c2.3475,0.29625 4.51875,1.03625 6.5125,2.22125c1.775,-1.10625 3.96625,-1.82625 6.57125,-2.16125c1.38125,-0.17875 3.7,-0.2675 6.95625,-0.2675c8.7425,0 13.11375,3.08875 13.11375,9.26625l0,16.78375z" id="path44" fill-rule="nonzero" fill="#ffffff"/>
  <path d="m94.227125,31.878562l0,-10.92375c0,-2.25 -2.56625,-3.37375 -7.69625,-3.37375l-10.15375,0c-1.895,0 -3.5925,0.23625 -5.0925,0.71c-2.13125,0.69125 -3.19625,1.7375 -3.19625,3.1375l0,10.45c0,1.3425 1.085,2.32875 3.25625,2.96c1.44,0.415 3.1275,0.6225 5.06125,0.6225l10.15375,0c1.63875,0 3.1875,-0.2375 4.6475,-0.71125c2.0125,-0.65125 3.02,-1.6075 3.02,-2.87125m6.33375,0c0,3.23625 -1.5975,5.605 -4.795,7.105c-2.27,1.145 -5.28875,1.71625 -9.05875,1.71625l-10.38875,0c-3.435,0 -6.54375,-0.58125 -9.325,-1.74625c-3.43375,-1.54 -5.15125,-3.8975 -5.15125,-7.075l0,-10.45c0,-3.17625 1.70625,-5.58375 5.12,-7.2225c2.50625,-1.2625 5.61625,-1.895 9.325,-1.895l10.42,0c9.23625,0 13.85375,3.02 13.85375,9.05875l0,10.50875z" id="path46" fill-rule="nonzero" fill="#ffffff"/>
  <path d="m143.047875,14.235812c0,0.5525 -0.255,1.17375 -0.76625,1.865l-17.7725,24.03625c-0.6175,0.81 -1.32125,1.21375 -2.115,1.21375c-0.795,0 -1.48125,-0.385 -2.06375,-1.15375l-17.8775,-24.09625c-0.5125,-0.69125 -0.7675,-1.3125 -0.7675,-1.865c0,-1.36125 1.015,-2.0425 3.04125,-2.0425c1.21625,0 2.0625,0.325 2.54,0.97625l15.15375,20.6625l15.075,-20.6625c0.475,-0.65125 1.32125,-0.97625 2.5375,-0.97625c2.01,0 3.015,0.68125 3.015,2.0425" id="path48" fill-rule="nonzero" fill="#ffffff"/>
  <path d="m152.288625,38.361187c0,1.56 -0.78,2.33875 -2.33875,2.33875c-1.52,0 -2.40875,-0.07 -2.665,-0.2075c-0.80875,-0.295 -1.21375,-1.00625 -1.21375,-2.13125l0,-23.82875c0,-1.54 0.78,-2.31 2.33875,-2.31c1.5,0 2.37875,0.07 2.635,0.2075c0.82875,0.29625 1.24375,0.9975 1.24375,2.1025l0,23.82875zm0.85875,-34.16375c0,1.02625 -0.435,1.835 -1.3025,2.4275c-0.75125,0.5125 -1.6675,0.77 -2.75375,0.77c-1.08625,0 -2.0025,-0.2575 -2.75375,-0.77c-0.8675,-0.5925 -1.30125,-1.40125 -1.30125,-2.4275c0,-1.02625 0.43375,-1.835 1.30125,-2.4275c0.75125,-0.5125 1.6675,-0.77 2.75375,-0.77c1.08625,0 2.0025,0.2575 2.75375,0.77c0.8675,0.5925 1.3025,1.40125 1.3025,2.4275" id="path50" fill-rule="nonzero" fill="#ffffff"/>
  <path d="m195.86225,38.361187c0,1.56 -0.77875,2.33875 -2.33625,2.33875c-1.54125,0 -2.43875,-0.07 -2.695,-0.2075c-0.85,-0.295 -1.2725,-1.00625 -1.2725,-2.13125l0,-18.05625c0,-1.28375 -1.06625,-2.1225 -3.19875,-2.51625c-0.3725,-0.07875 -0.95125,-0.13375 -1.73,-0.16375c-0.77875,-0.02875 -1.76125,-0.04375 -2.945,-0.04375l-10.77625,0c-1.08625,0 -1.9975,0.02 -2.73875,0.05875c-0.74,0.04 -1.32625,0.09875 -1.76125,0.1775c-2.01125,0.395 -3.01875,1.23375 -3.01875,2.51625l0,18.0275c0,1.56 -0.77,2.33875 -2.30875,2.33875c-1.54,0 -2.4375,-0.07 -2.69375,-0.2075c-0.82875,-0.295 -1.24375,-1.00625 -1.24375,-2.13125l0,-17.96875c0,-5.3875 4.775,-8.08125 14.3275,-8.08125l10.21375,0c9.45125,0 14.1775,2.675 14.1775,8.0225l0,18.0275z" id="path52" fill-rule="nonzero" fill="#ffffff"/>
  <path d="m233.013125,35.253187l0,-13.765c0,-1.40125 -1.1525,-2.4575 -3.4625,-3.1675c-1.875,-0.5125 -3.6225,-0.77 -5.23875,-0.77l-9.85875,0c-2.32875,0 -3.99625,0.11875 -5.0025,0.35625c-2.0725,0.5125 -3.1075,1.55875 -3.1075,3.1375l0,10.5675c0,2.4275 3.09875,3.64125 9.295,3.64125l17.375,0zm6.30625,4.5c0,3.25625 -2.03375,5.64375 -6.09875,7.16375c-2.7025,1.085 -6.1275,1.6275 -10.27125,1.6275l-2.605,0c-1.56,0 -2.33875,-0.97625 -2.33875,-2.93c0,-1.54 0.77875,-2.31 2.33875,-2.31l4.52875,0c0.78875,0 2.26875,-0.28625 4.44125,-0.8575c2.24875,-0.6525 3.4425,-1.3125 3.58125,-1.98375l-17.13875,0c-4.0475,0 -7.3725,-0.5025 -9.9775,-1.51c-3.78875,-1.44 -5.68375,-3.8575 -5.68375,-7.2525l0,-10.5375c0,-5.96 5.88125,-8.94 17.64375,-8.94c0.315,0 0.70125,0.005 1.155,0.01375c0.45375,0.01125 0.99625,0.025 1.62875,0.045c0.01875,0.02 0.16625,0.02875 0.44375,0.02875l0.4425,0l0.7425,0l1.15125,0c3.73125,0 7.105,0.55375 10.125,1.65875c3.92875,1.53875 5.89125,3.9575 5.89125,7.2525l0,18.53125z" id="path54" fill-rule="nonzero" fill="#ffffff"/>
  <path d="m283.159625,38.361187c0,1.56 -0.96625,2.33875 -2.9025,2.33875l-23.1175,0c-4.44125,0 -7.6375,-0.42375 -9.5925,-1.2725c-3.355,-1.3425 -5.0325,-3.77875 -5.0325,-7.3125l0,-11.18875c0,-5.7425 4.44125,-8.615 13.32125,-8.615l24.7475,0c1.61875,0 2.4275,0.87875 2.4275,2.635c0,1.75625 -0.80875,2.635 -2.4275,2.635l-24.30375,0c-5.0125,0 -7.52,1.05625 -7.52,3.1675l0,11.1c0,2.40875 2.8525,3.6125 8.5575,3.6125l23.50375,0c1.5575,0 2.33875,0.96625 2.33875,2.9" id="path56" fill-rule="nonzero" fill="#455a64"/>
  <path d="m320.4435,30.694562c0,-0.27625 -0.0075,-0.6225 -0.0175,-1.03625c-0.00875,-0.415 -0.02375,-0.8975 -0.04375,-1.45c-0.01875,-0.5525 -0.03375,-1.03625 -0.04375,-1.45125c-0.01,-0.41375 -0.015,-0.75875 -0.015,-1.03625l-22.1725,0c-1.30125,0 -2.64375,0.2375 -4.02625,0.71125c-1.79375,0.6125 -2.6925,1.41125 -2.6925,2.3975l0,3.5825c0,1.045 0.9275,1.845 2.78375,2.3975c1.18375,0.43375 2.55375,0.65125 4.11375,0.65125l15.5125,0c2.32625,0 3.925,-0.2275 4.795,-0.68125c1.20375,-0.61125 1.80625,-1.97375 1.80625,-4.085m6.125,1.48c0,5.68375 -4.2625,8.525 -12.7875,8.525l-15.27375,0c-3.27625,0 -6.10875,-0.60125 -8.49625,-1.805c-3.2175,-1.53875 -4.82375,-3.68 -4.82375,-6.42375l0,-3.61125c0,-2.96 1.52875,-5.18125 4.5875,-6.66c2.2675,-1.145 5.11,-1.7175 8.525,-1.7175l22.0825,0c-0.33375,-1.99375 -3.15625,-2.99 -8.46375,-2.99c-0.22,0 -0.48125,0.005 -0.78625,0.015c-0.305,0.01 -0.6575,0.025 -1.05,0.04375c-0.02,0.02 -0.12,0.03 -0.295,0.03l-0.26875,0l-0.47375,0l-0.74,0c-1.5375,0 -2.3075,-0.97625 -2.3075,-2.93c0,-1.56 0.77,-2.34 2.3075,-2.34c4.9925,0 8.81125,0.34625 11.4575,1.0375c4.53875,1.2825 6.80625,3.8475 6.80625,7.69625l0,11.13z" id="path58" fill-rule="nonzero" fill="#455a64"/>
  <path d="m337.255,38.361187c0,1.56 -0.76875,2.33875 -2.31,2.33875c-1.51875,0 -2.40625,-0.07 -2.66375,-0.2075c-0.84875,-0.315 -1.27125,-1.025 -1.27125,-2.13125l0,-31.4075c0,-1.53875 0.76875,-2.30875 2.31,-2.30875c1.4375,0 2.33625,0.05875 2.6925,0.1775c0.8275,0.27625 1.2425,0.98625 1.2425,2.13125l0,31.4075z" id="path60" fill-rule="nonzero" fill="#455a64"/>
  <path d="m348.209625,38.361187c0,1.56 -0.77125,2.33875 -2.31,2.33875c-1.52,0 -2.40625,-0.07 -2.66375,-0.2075c-0.84875,-0.315 -1.27375,-1.025 -1.27375,-2.13125l0,-31.4075c0,-1.53875 0.76875,-2.30875 2.31,-2.30875c1.44,0 2.33875,0.05875 2.6925,0.1775c0.83,0.27625 1.245,0.98625 1.245,2.13125l0,31.4075z" id="path62" fill-rule="nonzero" fill="#455a64"/>
 </g>
</svg>