{
  "page": {
    "number": 0,
    "totalPages": 1,
    "totalElements": 3,
    "size": 20
  },
  "_links": {
    "profile": {
      "href": "http://localhost:9091/profile/forms"
    },
    "self": {
      "href": "http://localhost:9091/forms"
    }
  },
  "_embedded": {
    "forms": [
      {
        "_links": {
          "form": {
            "href": "http://localhost:9091/forms/5c73b5b14eca3ccbdc30dd5b"
          },
          "self": {
            "href": "http://localhost:9091/forms/5c73b5b14eca3ccbdc30dd5b"
          }
        },
        "questionCount": 4,
        "phase": {
          "title": "third",
          "position": 3
        },
        "title": "Sport",
        "surveyId": "165989982"
      },
      {
        "_links": {
          "form": {
            "href": "http://localhost:9091/forms/5c72cad14eca3c73386795dd"
          },
          "self": {
            "href": "http://localhost:9091/forms/5c72cad14eca3c73386795dd"
          }
        },
        "questionCount": 4,
        "phase": {
          "title": "second",
          "position": 2
        },
        "title": "Food ",
        "surveyId": "165989982"
      },
      {
        "_links": {
          "form": {
            "href": "http://localhost:9091/forms/5c72ca7b4eca3c73386795dc"
          },
          "self": {
            "href": "http://localhost:9091/forms/5c72ca7b4eca3c73386795dc"
          }
        },
        "questionCount": 4,
        "phase": {
          "title": "first",
          "position": 1
        },
        "title": "Work",
        "surveyId": "165989982"
      }
    ]
  }
}
